{

    "base": [
    {
        "text": "J’entre dans une pièce en losange avec un plafond qui penche… ça tangue !",
        "id": 100
    },
    {
        "text": "J’entre dans une pièce parfaitement carrée… cubique je dirais même ! Une cellule !",
        "id": 101
    },
    {
        "text": "C’est une salle ovale dans laquelle je débarque.",
        "id": 102
    },
    {
        "text": "Mais c’est un œuf, cette piaule. Je lève les yeux : le plafond est courbe et sous mes pieds le sol est en creux.",
        "id": 103
    },
    {
        "text": "Salle immense ! Le plafond est au moins à 5 m de hauteur… et la porte d’en face à au moins 20 m… On se sent petit quand on rentre !",
        "id": 104
    },
    {
        "text": "Faut se pencher pour entrer dans ce cagibi et se plier en quatre pour y rester ! J’en mène pas large !",
        "id": 105
    },
    {
        "text": "Waouh ! Salle de bal version placard ! A peine de quoi s’asseoir et étendre ses jambes… pas plus !",
        "id": 106
    },
    {
        "text": "Un vrai cagibi pas plus grand qu’une cabane à poule… Et encore pas de place pour l’œuf… J’entre !",
        "id": 107
    },
    {
        "text": "Je découvre une pièce longue et étroite, genre couloir !",
        "id": 108
    },
    {
        "text": "J’aime cette pièce… Elle est tout à fait à mes dimensions. Modeste et harmonieuse !",
        "id": 109
    },
    {
        "text": "Je pénètre dans une pièce de belle dimension.",
        "id": 110
    },
    {
        "text": "Je passe la porte et aussitôt j’apprécie les généreuses dimensions de l’endroit",
        "id": 111
    },
    {
        "text": "On se sent à l’étroit ici, pas tant que ça soit vraiment petit. Mais on se sent à l’étroit et on étouffe.",
        "id": 112
    },
    {
        "text": "Je fais quelques pas dans une pièce étriquée. Le plafond est bas.",
        "id": 113
    },
    {
        "text": "J’entre. Il y a des coins et des recoins.C’est comme plusieurs pièces en une seule !",
        "id": 114
    },
    {
        "text": "C’est haut. Je lève le nez en entrant. C’est si haut qu’un escalier en colimaçon mène à une mezzanine.",
        "id": 115
    }],

    "mur": [
    {
        "text": "Les murs sont couverts de carreaux de faïence bleue rayée de blanc.",
        "id": 200
    },
    {
        "text": "Les murs sont couverts de lattes verticales de bois peint en bleu. Le bleu s’écaille par endroit et laisse apparaître l’ancienne peinture blanche.",
        "id": 201
    },
    {
        "text": "Les murs sont couverts d’une tapisserie avec des petits oursons qui gambadent et des papillons.",
        "id": 202
    },
    {
        "text": "Un large tag barre un des murs. Sur un autre, c’est un pot de peinture noir qui a dû être lancé et qui a coulé jusqu’au sol.",
        "id": 203
    },
    {
        "text": "Les murs sont lisses, blancs et satinés.",
        "id": 204
    },
    {
        "text": "Une tapisserie à grosses fleurs violettes couvre un des murs, les trois autres sont roses fuchsias !",
        "id": 205
    },
    {
        "text": "De lourdes tentures brodés d’or et d’argent couvrent les murs.",
        "id": 206
    },
    {
        "text": "Sur les murs, un jeu de miroir renvoie mon image. Je finis par me demander ou je suis et qui je suis vraiment.",
        "id": 207
    }],

    "sol": [
    {
        "text": "Une moquette grise et rase couvre le sol. Quelques vêtements ont chaviré là.",
        "id": 300
    },
    {
        "text": "Un tapis persan couvre presque tout le plancher. Il représente un jardin rouge où se mêlent des oiseaux beiges et noirs et des fleurs orangés.",
        "id": 301
    },
    {
        "text": "Au sol s’étend un parquet ciré couleur acajou.",
        "id": 302
    },
    {
        "text": "Une mosaïque en faïence couvre le sol… elle représente la déesse Vénus (en personne) sortant des eaux.",
        "id": 303
    },
    {
        "text": "J’hésite à marcher sur le vieux lino crasseux qui gondole.",
        "id": 304
    },
    {
        "text": "Sur de grandes dalles blanches est posé un tapis bleu profond. Une accumulation de petits pavés mauves ont été tissés sur le tapis.",
        "id": 305
    },
    {
        "text": "Le sol est couvert d’un damier de dalles noires et blanches.",
        "id": 306
    },
    {
        "text": "Sur le sol de béton gris, est tracé à la craie blanche une silhouette.",
        "id": 307
    }],

    "fenetre": [
    {
        "text": "Sur le côté, se dresse une fenêtre habillée d’un rideau en dentelle qui cache une trace rouge sur la vitre.",
        "id": 400
    },
    {
        "text": "À gauche de la porte, deux fenêtres hautes laissent entrer une lumière vive… des ombres dansent sur mur d’en face.",
        "id": 401
    },
    {
        "text": "Au plafond, une lucarne entrouverte laisse passer un courant d’air glacial et un peu de nuit.",
        "id": 402
    },
    {
        "text": "Sur le mur de gauche, un fenêtre s’ouvre sur une forêt de sombres sapins qui plient sous le poids de la neige.",
        "id": 403
    },
    {
        "text": "Des barreaux à la fenêtre et de l’autre côté un ciel immense et jaune pâle.",
        "id": 404
    }],

    "creature": [
    {
        "text": "==Appuyé--Appuyée== au porte manteau perroquet, ==un--une== ==creature== semble ==perdu--perdue== dans ses pensées, pourtant je suis sûr qu’==il--elle== a senti ma présence."
    },
    {
        "text": "Dans un recoin sombre il me semble distinguer ==un--une== ==creature== ==replié--repliée== sur ==lui--elle== même."
    },
    {
        "text": "Au milieu trône fièrement ==un--une== ==creature== d'imposante stature."
    },
    {
        "text": "==Un tout petit--Une minuscule== ==creature== se cache maladroitement derrière un rideau."
    },
    {
        "text": "Dos à moi, ==un gros--une grosse== ==creature== ronfle terriblement, le son est assourdissant."
    },
    {
        "text": "Sur un buffet est accroupi nonchalamment ==un--une== ==créature==, soudain ==il--elle== coasse."
    },
    {
        "text": "La porte d’une armoire s’ouvre. une vague s’en échappe, déversant algues sables et coquillages sur le sol. De l’armoire béante sort ==un--une== ==créature== dégoulinante."
    },
    {
        "text": "Sur une table ronde, couverte d’une nappe épaisse, est posée une soupière fumante. Le couvercle se soulève, ==un--une==  ==créature== sort la tête."
    },
    {
        "text": "Il y a un lit couvert de feuilles mortes et sous le lit ==un--une== ==créature== squelettique, maigre comme un chien qui attendrait son maître depuis des siècles."
    },
    {
        "text": "Dans un lit, ==un--une== énorme ==créature== ronfle, une cuisse de poulet dans sa main close."
    },
    {
        "text": "Au fond d’une baignoire sans eau, ==un--une== ==créature== tricote des chaînes."
    },
    {
        "text": "D’une une large faille qui traverse le mur comme une plaie suintante, s’extirpe ==un--une== ==créature==."
    },
    {
        "text": "==Suspendu--Suspendue== au plafond, ==un--une== ==créature== se balance la tête à l’envers. ==Il--Elle== baille et s’étire."
    }],

    "interrupteur": [
    {
        "text": "Une <a id='interrupteur' porteSecrete='__portei__' opened='false' newText=\"La poignée pivote pour révéler l'embrasure d'une toute petite porte. \">étrange poignée</a> s'accroche désespérément à un mur."
    }],

    "secret": [
    {
        "text": "L'étroit couloir auparavant dissimulé débouche sur une pièce étonnament cubique et spacieuse. En son centre, un petit coffret incongrument posé là. Est-ce un précieux ?.. Non. Mais il est sculpté avec un tel talent qu'on s'y méprendrai. Devrais-je l'ouvrir ?"
    }]
}